{
    "host":          "localhost",
    "sitePath":       "/var/www/tsc.dev",
    "urls":         {
        "base":         "http://tsc.dev:3030",
        "assets":       "http://tsc.dev:3030/assets/"
    },
    "port":          3030,
    "db":            {
        "url":        "mysql://root:root@localhost:3306/tsc",
        "dialect":    "mysql",
        "host": "localhost",
        "port": 3306,
        "user": "root",
        "password": "root",
        "database": "tsc"
    },
    "public":           "../public/",
    "view engine":      "ejs",
    "views":            "./public",
    "stripe":
    {
        "secret": " sk_test_vn7rec1E5NEeAV9DBDEqUHGX",
        "publishable": "pk_test_SnKHGG2vwSUrId9fptCfxHlN"
    },
    "auth":  {
        "idField":     "id",
        "token":   {
            "secret":    "JX5jJGPgeZ57lUUTdkrSTlm2CMDeQylgc1htgt0GvVujoHP4Q6oHVwJEPH4eCFyvpzZvC1E90qwAQJCi1dcZFA=="
        },
        "local":        {},
        "successRedirect": "/hi.html"
    }
}
