{
    "host":          "localhost",
    "sitePath":       "/var/www/production/source",
    "urls":         {
        "base":         "https://thesiteclinic.com",
        "assets":       "https://thesiteclinic.com/assets/"
    },
    "port":          8082,
    "db":            {
        "url":        "mysql://tcuser:iGh9Cvu4CUeEFQP@localhost:3306/tsc",
        "dialect":    "mysql",
        "host": "localhost",
        "port": 3306,
        "user": "tcusr",
        "password": "iGh9Cvu4CUeEFQP",
        "database": "tsc"
    },
    "public":           "../public/",
    "view engine":      "ejs",
    "views":            "./public",
    "braintree":        "access_token$production$45j3p39f46zvjbb4$a6e4e19fa4145105435beb9db90bb917",
    "stripe":
    {
        "secret": "sk_live_FsHOr0yuxUsPrOuT7QEUqJSz",
        "publishable": "pk_live_gq4NfXc63m7doFkYUpHX1AdI"
    },
    "auth":  {
        "idField":     "id",
        "token":   {
            "secret":    "JX5jJGPgeZ57lUUTdkrSTlm2CMDeQylgc1htgt0GvVujoHP4Q6oHVwJEPH4eCFyvpzZvC1E90qwAQJCi1dcZFA=="
        },
        "local":        {},
        "successRedirect": "/dashboard"
    }
}
